com/example/demo/DemoApplication.class
com/example/demo/repositories/ProductRepository.class
com/example/demo/controllers/ProductController.class
com/example/demo/models/Product.class
com/example/demo/database/Database.class
